<svg width="16" height="14" viewBox="0 0 16 14" fill="none" xmlns="http://www.w3.org/2000/svg">
<path d="M8.86603 13.5C8.48113 14.1667 7.51888 14.1667 7.13398 13.5L0.205772 1.5C-0.179129 0.833332 0.301996 -1.54721e-06 1.0718 -1.47991e-06L14.9282 -2.68545e-07C15.698 -2.01247e-07 16.1791 0.833333 15.7942 1.5L8.86603 13.5Z" fill="#90F4EE"/>
</svg>
