<svg width="18" height="12" viewBox="0 0 18 12" fill="none" xmlns="http://www.w3.org/2000/svg">
<path d="M1.49219 1.48633H16.9999" stroke="#ffffff" stroke-width="2" stroke-linecap="round"/>
<path d="M1.49219 6.18066H16.9999" stroke="#ffffff" stroke-width="2" stroke-linecap="round"/>
<path d="M1.49219 10.5137H16.9999" stroke="#ffffff" stroke-width="2" stroke-linecap="round"/>
</svg>
