{
    "key": "group_673503729ec11",
    "title": "Component: Image",
    "fields": [
        {
            "key": "field_67350372a753d",
            "label": "Size",
            "name": "size",
            "aria-label": "",
            "type": "select",
            "instructions": "Select the layout of the infographic. \"Large\" will show the graphic full-width across the section. \"Small\" will show the image with the width that matches a text block. \"Side-by-side\" will show the headline, description, and source alongside the image.",
            "required": 0,
            "conditional_logic": 0,
            "wrapper": {
                "width": "",
                "class": "",
                "id": ""
            },
            "relevanssi_exclude": 0,
            "wpml_cf_preferences": 1,
            "choices": {
                "large": "Large",
                "small": "Small",
                "side-by-side": "Side by Side",
                "small-side-by-side": "Side by Side (Small)"
            },
            "default_value": "large",
            "return_format": "value",
            "multiple": 0,
            "allow_null": 0,
            "allow_in_bindings": 1,
            "ui": 0,
            "ajax": 0,
            "placeholder": ""
        },
        {
            "key": "field_67350372a7545",
            "label": "Image",
            "name": "desktop_image",
            "aria-label": "",
            "type": "image",
            "instructions": "",
            "required": 0,
            "conditional_logic": 0,
            "wrapper": {
                "width": "",
                "class": "",
                "id": ""
            },
            "relevanssi_exclude": 0,
            "wpml_cf_preferences": 2,
            "return_format": "array",
            "library": "all",
            "min_width": "",
            "min_height": "",
            "min_size": "",
            "max_width": "",
            "max_height": "",
            "max_size": "",
            "mime_types": "",
            "allow_in_bindings": 0,
            "preview_size": "thumbnail"
        },
        {
            "key": "field_67350372a7548",
            "label": "Image Title",
            "name": "image_title",
            "aria-label": "",
            "type": "text",
            "instructions": "",
            "required": 0,
            "conditional_logic": 0,
            "wrapper": {
                "width": "",
                "class": "",
                "id": ""
            },
            "relevanssi_exclude": 0,
            "wpml_cf_preferences": 2,
            "default_value": "",
            "maxlength": "",
            "allow_in_bindings": 0,
            "placeholder": "",
            "prepend": "",
            "append": ""
        },
        {
            "key": "field_67350372a754c",
            "label": "Image Description",
            "name": "image_description",
            "aria-label": "",
            "type": "wysiwyg",
            "instructions": "",
            "required": 0,
            "conditional_logic": 0,
            "wrapper": {
                "width": "",
                "class": "",
                "id": ""
            },
            "relevanssi_exclude": 0,
            "wpml_cf_preferences": 2,
            "default_value": "",
            "allow_in_bindings": 1,
            "tabs": "all",
            "toolbar": "highlight",
            "media_upload": 0,
            "delay": 0
        },
        {
            "key": "field_67350372a7550",
            "label": "Include Source",
            "name": "include_source",
            "aria-label": "",
            "type": "true_false",
            "instructions": "",
            "required": 0,
            "conditional_logic": 0,
            "wrapper": {
                "width": "",
                "class": "",
                "id": ""
            },
            "relevanssi_exclude": 0,
            "wpml_cf_preferences": 1,
            "message": "Include a link to the source",
            "default_value": 0,
            "allow_in_bindings": 1,
            "ui": 0,
            "ui_on_text": "",
            "ui_off_text": ""
        },
        {
            "key": "field_67350372a7554",
            "label": "Image Source",
            "name": "image_source",
            "aria-label": "",
            "type": "group",
            "instructions": "",
            "required": 0,
            "conditional_logic": [
                [
                    {
                        "field": "field_67350372a7550",
                        "operator": "==",
                        "value": "1"
                    }
                ]
            ],
            "wrapper": {
                "width": "",
                "class": "",
                "id": ""
            },
            "relevanssi_exclude": 0,
            "wpml_cf_preferences": 2,
            "layout": "table",
            "sub_fields": [
                {
                    "key": "field_67350372b992e",
                    "label": "Name",
                    "name": "name",
                    "aria-label": "",
                    "type": "text",
                    "instructions": "",
                    "required": 0,
                    "conditional_logic": 0,
                    "wrapper": {
                        "width": "",
                        "class": "",
                        "id": ""
                    },
                    "relevanssi_exclude": 0,
                    "wpml_cf_preferences": 2,
                    "default_value": "",
                    "maxlength": "",
                    "allow_in_bindings": 1,
                    "placeholder": "",
                    "prepend": "",
                    "append": ""
                },
                {
                    "key": "field_67350372b9937",
                    "label": "URL",
                    "name": "url",
                    "aria-label": "",
                    "type": "url",
                    "instructions": "",
                    "required": 0,
                    "conditional_logic": 0,
                    "wrapper": {
                        "width": "",
                        "class": "",
                        "id": ""
                    },
                    "relevanssi_exclude": 0,
                    "wpml_cf_preferences": 2,
                    "default_value": "",
                    "allow_in_bindings": 1,
                    "placeholder": ""
                }
            ]
        }
    ],
    "location": [
        [
            {
                "param": "post_type",
                "operator": "==",
                "value": "post"
            }
        ]
    ],
    "menu_order": 0,
    "position": "normal",
    "style": "default",
    "label_placement": "top",
    "instruction_placement": "label",
    "hide_on_screen": "",
    "active": false,
    "description": "",
    "show_in_rest": 0,
    "acfml_field_group_mode": "advanced",
    "modified": 1731528823
}
