{
    "key": "group_66d09b7bd4da1",
    "title": "Component: Media + Text",
    "fields": [
        {
            "key": "field_6740dfeec4bf4",
            "label": "Media Type",
            "name": "media_type",
            "aria-label": "",
            "type": "select",
            "instructions": "Select what time of media you want alongside the textblock.",
            "required": 0,
            "conditional_logic": 0,
            "wrapper": {
                "width": "50",
                "class": "",
                "id": ""
            },
            "relevanssi_exclude": 0,
            "wpml_cf_preferences": 1,
            "choices": {
                "image": "Image",
                "infographic": "Infographic"
            },
            "default_value": false,
            "return_format": "value",
            "multiple": 0,
            "allow_null": 0,
            "allow_in_bindings": 0,
            "ui": 0,
            "ajax": 0,
            "placeholder": ""
        },
        {
            "key": "field_66d09b7bd6f9f",
            "label": "Media Position",
            "name": "image_position",
            "aria-label": "",
            "type": "select",
            "instructions": "Select what side of the page you want the image to be on.",
            "required": 0,
            "conditional_logic": 0,
            "wrapper": {
                "width": "50",
                "class": "",
                "id": ""
            },
            "relevanssi_exclude": 0,
            "wpml_cf_preferences": 1,
            "choices": {
                "image-left": "Media Left-side",
                "image-right": "Media Right-side"
            },
            "default_value": "image-left",
            "return_format": "value",
            "multiple": 0,
            "allow_null": 0,
            "allow_in_bindings": 1,
            "ui": 0,
            "ajax": 0,
            "placeholder": ""
        },
        {
            "key": "field_6740e1d2a4552",
            "label": "Container Width",
            "name": "container_width",
            "aria-label": "",
            "type": "select",
            "instructions": "Select the width of the container",
            "required": 0,
            "conditional_logic": 0,
            "wrapper": {
                "width": "50",
                "class": "",
                "id": ""
            },
            "relevanssi_exclude": 0,
            "wpml_cf_preferences": 1,
            "choices": {
                "container__inner": "Small (900px)",
                "container__inner-wide": "Medium (1160px)",
                "container__inner-full": "Large (1360px)"
            },
            "default_value": "container__inner-full",
            "return_format": "value",
            "multiple": 0,
            "allow_null": 0,
            "allow_in_bindings": 1,
            "ui": 0,
            "ajax": 0,
            "placeholder": ""
        },
        {
            "key": "field_674484f138a14",
            "label": "Border Style",
            "name": "border_style",
            "aria-label": "",
            "type": "select",
            "instructions": "Sets a border above\/below the section.",
            "required": 0,
            "conditional_logic": 0,
            "wrapper": {
                "width": "50",
                "class": "",
                "id": ""
            },
            "relevanssi_exclude": 0,
            "wpml_cf_preferences": 1,
            "choices": {
                "no-border": "None",
                "border-top": "Border Top",
                "border-bottom": "Border Bottom",
                "border-both": "Border Top and Bottom"
            },
            "default_value": "no-border",
            "return_format": "value",
            "multiple": 0,
            "allow_null": 0,
            "allow_in_bindings": 1,
            "ui": 0,
            "ajax": 0,
            "placeholder": ""
        },
        {
            "key": "field_6744852638a15",
            "label": "Media Heading",
            "name": "media_heading",
            "aria-label": "",
            "type": "group",
            "instructions": "A title\/subhead for the graphic that sites alongside text",
            "required": 0,
            "conditional_logic": 0,
            "wrapper": {
                "width": "50",
                "class": "",
                "id": ""
            },
            "relevanssi_exclude": 0,
            "wpml_cf_preferences": 1,
            "layout": "block",
            "sub_fields": [
                {
                    "key": "field_6744856538a16",
                    "label": "Headline",
                    "name": "headline",
                    "aria-label": "",
                    "type": "text",
                    "instructions": "",
                    "required": 0,
                    "conditional_logic": 0,
                    "wrapper": {
                        "width": "",
                        "class": "",
                        "id": ""
                    },
                    "relevanssi_exclude": 0,
                    "wpml_cf_preferences": 2,
                    "default_value": "",
                    "maxlength": "",
                    "allow_in_bindings": 0,
                    "placeholder": "",
                    "prepend": "",
                    "append": ""
                },
                {
                    "key": "field_6744856a38a17",
                    "label": "Subhead",
                    "name": "subhead",
                    "aria-label": "",
                    "type": "wysiwyg",
                    "instructions": "",
                    "required": 0,
                    "conditional_logic": 0,
                    "wrapper": {
                        "width": "",
                        "class": "",
                        "id": ""
                    },
                    "relevanssi_exclude": 0,
                    "wpml_cf_preferences": 2,
                    "default_value": "",
                    "allow_in_bindings": 0,
                    "tabs": "all",
                    "toolbar": "link",
                    "media_upload": 0,
                    "delay": 0
                }
            ]
        },
        {
            "key": "field_66d09b7bd6f9a",
            "label": "Content",
            "name": "content",
            "aria-label": "",
            "type": "wysiwyg",
            "instructions": "",
            "required": 0,
            "conditional_logic": 0,
            "wrapper": {
                "width": "50",
                "class": "",
                "id": ""
            },
            "relevanssi_exclude": 0,
            "wpml_cf_preferences": 2,
            "default_value": "",
            "allow_in_bindings": 1,
            "tabs": "all",
            "toolbar": "base",
            "media_upload": 0,
            "delay": 0
        },
        {
            "key": "field_66d09c12b138d",
            "label": "Image",
            "name": "image",
            "aria-label": "",
            "type": "image",
            "instructions": "",
            "required": 0,
            "conditional_logic": [
                [
                    {
                        "field": "field_6740dfeec4bf4",
                        "operator": "==",
                        "value": "image"
                    }
                ]
            ],
            "wrapper": {
                "width": "50",
                "class": "",
                "id": ""
            },
            "relevanssi_exclude": 0,
            "wpml_cf_preferences": 1,
            "return_format": "array",
            "library": "all",
            "min_width": "",
            "min_height": "",
            "min_size": "",
            "max_width": "",
            "max_height": "",
            "max_size": "",
            "mime_types": "",
            "allow_in_bindings": 1,
            "preview_size": "medium"
        },
        {
            "key": "field_6740e03cd095d",
            "label": "ai2html URL",
            "name": "ai2html_url",
            "aria-label": "",
            "type": "url",
            "instructions": "The URL to where the ai2html infographic is stored on the server. Add <b>https:\/\/srm.local<\/b> to the URL.",
            "required": 1,
            "conditional_logic": [
                [
                    {
                        "field": "field_6740dfeec4bf4",
                        "operator": "==",
                        "value": "infographic"
                    }
                ]
            ],
            "wrapper": {
                "width": "",
                "class": "",
                "id": ""
            },
            "relevanssi_exclude": 0,
            "wpml_cf_preferences": 2,
            "default_value": "",
            "allow_in_bindings": 0,
            "placeholder": ""
        },
        {
            "key": "field_6740e043d095e",
            "label": "Include Source",
            "name": "include_source",
            "aria-label": "",
            "type": "true_false",
            "instructions": "",
            "required": 0,
            "conditional_logic": [
                [
                    {
                        "field": "field_6740dfeec4bf4",
                        "operator": "==",
                        "value": "infographic"
                    }
                ]
            ],
            "wrapper": {
                "width": "",
                "class": "",
                "id": ""
            },
            "relevanssi_exclude": 0,
            "wpml_cf_preferences": 1,
            "message": "Include a link to the source",
            "default_value": 0,
            "allow_in_bindings": 1,
            "ui": 0,
            "ui_on_text": "",
            "ui_off_text": ""
        },
        {
            "key": "field_6740e045d095f",
            "label": "Infographic Source",
            "name": "infographic_source",
            "aria-label": "",
            "type": "group",
            "instructions": "",
            "required": 0,
            "conditional_logic": [
                [
                    {
                        "field": "field_6740dfeec4bf4",
                        "operator": "==",
                        "value": "infographic"
                    },
                    {
                        "field": "field_6740e043d095e",
                        "operator": "==",
                        "value": "1"
                    }
                ]
            ],
            "wrapper": {
                "width": "",
                "class": "",
                "id": ""
            },
            "relevanssi_exclude": 0,
            "wpml_cf_preferences": 1,
            "layout": "table",
            "sub_fields": [
                {
                    "key": "field_6740e045d0960",
                    "label": "Name",
                    "name": "name",
                    "aria-label": "",
                    "type": "text",
                    "instructions": "",
                    "required": 0,
                    "conditional_logic": 0,
                    "wrapper": {
                        "width": "",
                        "class": "",
                        "id": ""
                    },
                    "relevanssi_exclude": 0,
                    "wpml_cf_preferences": 2,
                    "default_value": "",
                    "maxlength": "",
                    "allow_in_bindings": 1,
                    "placeholder": "",
                    "prepend": "",
                    "append": ""
                },
                {
                    "key": "field_6740e045d0961",
                    "label": "URL",
                    "name": "url",
                    "aria-label": "",
                    "type": "url",
                    "instructions": "",
                    "required": 0,
                    "conditional_logic": 0,
                    "wrapper": {
                        "width": "",
                        "class": "",
                        "id": ""
                    },
                    "relevanssi_exclude": 0,
                    "wpml_cf_preferences": 1,
                    "default_value": "",
                    "allow_in_bindings": 1,
                    "placeholder": ""
                }
            ]
        },
        {
            "key": "field_67991486926d3",
            "label": "Downloadable Graphic",
            "name": "downloadable_graphic",
            "aria-label": "",
            "type": "file",
            "instructions": "Upload a static asset of the infographic so that users can download it.",
            "required": 0,
            "conditional_logic": [
                [
                    {
                        "field": "field_6740dfeec4bf4",
                        "operator": "==",
                        "value": "infographic"
                    }
                ]
            ],
            "wrapper": {
                "width": "",
                "class": "",
                "id": ""
            },
            "relevanssi_exclude": 0,
            "wpml_cf_preferences": 2,
            "return_format": "array",
            "library": "all",
            "min_size": "",
            "max_size": "",
            "mime_types": "",
            "allow_in_bindings": 0
        },
        {
            "key": "field_67b65eabec662",
            "label": "Downloadable Graphic URL",
            "name": "downloadable_graphic_url",
            "aria-label": "",
            "type": "url",
            "instructions": "Add the URL (from the media library) of the graphics package you would like to download.",
            "required": 0,
            "conditional_logic": [
                [
                    {
                        "field": "field_6740dfeec4bf4",
                        "operator": "==",
                        "value": "infographic"
                    }
                ]
            ],
            "wrapper": {
                "width": "",
                "class": "",
                "id": ""
            },
            "relevanssi_exclude": 0,
            "wpml_cf_preferences": 2,
            "default_value": "",
            "allow_in_bindings": 1,
            "placeholder": ""
        }
    ],
    "location": [
        [
            {
                "param": "post_type",
                "operator": "==",
                "value": "post"
            }
        ]
    ],
    "menu_order": 0,
    "position": "normal",
    "style": "default",
    "label_placement": "top",
    "instruction_placement": "label",
    "hide_on_screen": "",
    "active": false,
    "description": "",
    "show_in_rest": 0,
    "acfml_field_group_mode": "advanced",
    "modified": 1740005369
}
