{
    "key": "group_67212a3319e0a",
    "title": "Related Content",
    "fields": [
        {
            "key": "field_67212a3324131",
            "label": "Related Articles",
            "name": "related_articles",
            "aria-label": "",
            "type": "relationship",
            "instructions": "Add related content to the bottom of the article. If left blank 3 random pieces of content (in the same category) will be shown.",
            "required": 0,
            "conditional_logic": 0,
            "wrapper": {
                "width": "",
                "class": "",
                "id": ""
            },
            "relevanssi_exclude": 0,
            "wpml_cf_preferences": 3,
            "post_type": [
                "article",
                "video",
                "podcast",
                "perspective",
                "infographic"
            ],
            "post_status": "",
            "taxonomy": "",
            "filters": [
                "search",
                "post_type",
                "taxonomy"
            ],
            "return_format": "object",
            "min": "",
            "max": "",
            "allow_in_bindings": 1,
            "elements": "",
            "bidirectional": 0,
            "bidirectional_target": []
        }
    ],
    "location": [
        [
            {
                "param": "post_type",
                "operator": "==",
                "value": "article"
            }
        ],
        [
            {
                "param": "post_type",
                "operator": "==",
                "value": "perspective"
            }
        ],
        [
            {
                "param": "post_type",
                "operator": "==",
                "value": "video"
            }
        ],
        [
            {
                "param": "post_type",
                "operator": "==",
                "value": "podcast"
            }
        ],
        [
            {
                "param": "post_type",
                "operator": "==",
                "value": "infographic"
            }
        ]
    ],
    "menu_order": 9,
    "position": "normal",
    "style": "default",
    "label_placement": "top",
    "instruction_placement": "label",
    "hide_on_screen": [
        "the_content"
    ],
    "active": true,
    "description": "",
    "show_in_rest": 0,
    "acfml_field_group_mode": "advanced",
    "modified": 1730227224
}
