{
    "key": "group_66c3e52669492",
    "title": "Basic Info",
    "fields": [
        {
            "key": "field_67a282be02d2e",
            "label": "Include Header Image",
            "name": "include_header_image",
            "aria-label": "",
            "type": "true_false",
            "instructions": "",
            "required": 0,
            "conditional_logic": 0,
            "wrapper": {
                "width": "",
                "class": "",
                "id": ""
            },
            "relevanssi_exclude": 0,
            "wpml_cf_preferences": 1,
            "message": "Check this box to include a header image at the top of the article.",
            "default_value": 0,
            "allow_in_bindings": 0,
            "ui": 0,
            "ui_on_text": "",
            "ui_off_text": ""
        },
        {
            "key": "field_67a282d102d2f",
            "label": "Header Image",
            "name": "header_image",
            "aria-label": "",
            "type": "image",
            "instructions": "",
            "required": 0,
            "conditional_logic": [
                [
                    {
                        "field": "field_67a282be02d2e",
                        "operator": "==",
                        "value": "1"
                    }
                ]
            ],
            "wrapper": {
                "width": "",
                "class": "",
                "id": ""
            },
            "relevanssi_exclude": 0,
            "wpml_cf_preferences": 1,
            "return_format": "array",
            "library": "all",
            "min_width": "",
            "min_height": "",
            "min_size": "",
            "max_width": "",
            "max_height": "",
            "max_size": "",
            "mime_types": "",
            "allow_in_bindings": 0,
            "preview_size": "medium"
        },
        {
            "key": "field_676095b419cc8",
            "label": "Last Revised Date",
            "name": "last_revised_date",
            "aria-label": "",
            "type": "date_picker",
            "instructions": "",
            "required": 0,
            "conditional_logic": 0,
            "wrapper": {
                "width": "",
                "class": "",
                "id": ""
            },
            "relevanssi_exclude": 0,
            "wpml_cf_preferences": 1,
            "display_format": "F j, Y",
            "return_format": "F j, Y",
            "first_day": 1,
            "allow_in_bindings": 0
        },
        {
            "key": "field_66c3e5333394a",
            "label": "Subhead",
            "name": "subhead",
            "aria-label": "",
            "type": "wysiwyg",
            "instructions": "The secondary headline of the piece of content (shown directly below the title on the single page).",
            "required": 0,
            "conditional_logic": 0,
            "wrapper": {
                "width": "",
                "class": "",
                "id": ""
            },
            "relevanssi_exclude": 0,
            "wpml_cf_preferences": 2,
            "default_value": "",
            "allow_in_bindings": 1,
            "tabs": "all",
            "toolbar": "link",
            "media_upload": 0,
            "delay": 0
        },
        {
            "key": "field_66c3e5543394b",
            "label": "Lead (Summary)",
            "name": "lead",
            "aria-label": "",
            "type": "textarea",
            "instructions": "A brief description about the piece of content that gets displayed when the piece of content is in the featured (first) position. Please limit to approximately 250-300 characters (or 50 words). If left blank nothing will be shown.",
            "required": 0,
            "conditional_logic": 0,
            "wrapper": {
                "width": "",
                "class": "",
                "id": ""
            },
            "relevanssi_exclude": 0,
            "wpml_cf_preferences": 2,
            "default_value": "",
            "maxlength": "",
            "allow_in_bindings": 1,
            "rows": 5,
            "placeholder": "",
            "new_lines": ""
        },
        {
            "key": "field_66ddb7f9a2142",
            "label": "Read\/Watch\/Listen Time",
            "name": "read_time",
            "aria-label": "",
            "type": "number",
            "instructions": "",
            "required": 0,
            "conditional_logic": 0,
            "wrapper": {
                "width": "",
                "class": "",
                "id": ""
            },
            "relevanssi_exclude": 0,
            "wpml_cf_preferences": 1,
            "default_value": "",
            "min": "",
            "max": "",
            "allow_in_bindings": 0,
            "placeholder": "",
            "step": "",
            "prepend": "",
            "append": "min read\/watch\/listen"
        }
    ],
    "location": [
        [
            {
                "param": "post_type",
                "operator": "==",
                "value": "article"
            }
        ],
        [
            {
                "param": "post_type",
                "operator": "==",
                "value": "perspective"
            }
        ],
        [
            {
                "param": "post_type",
                "operator": "==",
                "value": "infographic"
            }
        ],
        [
            {
                "param": "post_type",
                "operator": "==",
                "value": "video"
            }
        ],
        [
            {
                "param": "post_type",
                "operator": "==",
                "value": "podcast"
            }
        ]
    ],
    "menu_order": 1,
    "position": "acf_after_title",
    "style": "default",
    "label_placement": "top",
    "instruction_placement": "label",
    "hide_on_screen": [
        "the_content"
    ],
    "active": true,
    "description": "",
    "show_in_rest": 0,
    "acfml_field_group_mode": "translation",
    "modified": 1738703627
}
