{
    "key": "post_type_66bd6ca29b5c4",
    "title": "Infographics",
    "menu_order": 0,
    "active": true,
    "post_type": "infographic",
    "advanced_configuration": true,
    "import_source": "",
    "import_date": "",
    "labels": {
        "name": "Infographics",
        "singular_name": "Infographic",
        "menu_name": "Infographics",
        "all_items": "All Infographics",
        "edit_item": "Edit Infographic",
        "view_item": "View Infographic",
        "view_items": "View Infographics",
        "add_new_item": "Add New Infographic",
        "add_new": "Add New Infographic",
        "new_item": "New Infographic",
        "parent_item_colon": "Parent Infographic:",
        "search_items": "Search Infographics",
        "not_found": "No infographics found",
        "not_found_in_trash": "No infographics found in Trash",
        "archives": "Infographic Archives",
        "attributes": "Infographic Attributes",
        "featured_image": "",
        "set_featured_image": "",
        "remove_featured_image": "",
        "use_featured_image": "",
        "insert_into_item": "Insert into infographic",
        "uploaded_to_this_item": "Uploaded to this infographic",
        "filter_items_list": "Filter infographics list",
        "filter_by_date": "Filter infographics by date",
        "items_list_navigation": "Infographics list navigation",
        "items_list": "Infographics list",
        "item_published": "Infographic published.",
        "item_published_privately": "Infographic published privately.",
        "item_reverted_to_draft": "Infographic reverted to draft.",
        "item_scheduled": "Infographic scheduled.",
        "item_updated": "Infographic updated.",
        "item_link": "Infographic Link",
        "item_link_description": "A link to a infographic."
    },
    "description": "",
    "public": true,
    "hierarchical": false,
    "exclude_from_search": false,
    "publicly_queryable": true,
    "show_ui": true,
    "show_in_menu": true,
    "admin_menu_parent": "",
    "show_in_admin_bar": true,
    "show_in_nav_menus": true,
    "show_in_rest": true,
    "rest_base": "",
    "rest_namespace": "wp\/v2",
    "rest_controller_class": "WP_REST_Posts_Controller",
    "menu_position": 6,
    "menu_icon": {
        "type": "dashicons",
        "value": "dashicons-welcome-view-site"
    },
    "rename_capabilities": false,
    "singular_capability_name": "post",
    "plural_capability_name": "posts",
    "supports": [
        "title",
        "revisions",
        "thumbnail",
        "custom-fields"
    ],
    "taxonomies": [
        "category",
        "post_tag"
    ],
    "has_archive": true,
    "has_archive_slug": "infographics",
    "rewrite": {
        "permalink_rewrite": "post_type_key",
        "with_front": "1",
        "feeds": "1",
        "pages": "1"
    },
    "query_var": "post_type_key",
    "query_var_name": "",
    "can_export": true,
    "delete_with_user": false,
    "register_meta_box_cb": "",
    "enter_title_here": "",
    "modified": 1739920293
}
