{
    "key": "taxonomy_672ba05194a78",
    "title": "FAQ Categories",
    "menu_order": 0,
    "active": true,
    "taxonomy": "faq-category",
    "object_type": [
        "faq"
    ],
    "advanced_configuration": 0,
    "import_source": "",
    "import_date": "",
    "labels": {
        "name": "FAQ Categories",
        "singular_name": "FAQ Category",
        "menu_name": "FAQ Categories",
        "all_items": "All FAQ Categories",
        "edit_item": "Edit FAQ Category",
        "view_item": "View FAQ Category",
        "update_item": "Update FAQ Category",
        "add_new_item": "Add New FAQ Category",
        "new_item_name": "New FAQ Category Name",
        "search_items": "Search FAQ Categories",
        "popular_items": "Popular FAQ Categories",
        "separate_items_with_commas": "Separate faq categories with commas",
        "add_or_remove_items": "Add or remove faq categories",
        "choose_from_most_used": "Choose from the most used faq categories",
        "most_used": "",
        "not_found": "No faq categories found",
        "no_terms": "No faq categories",
        "name_field_description": "",
        "slug_field_description": "",
        "desc_field_description": "",
        "items_list_navigation": "FAQ Categories list navigation",
        "items_list": "FAQ Categories list",
        "back_to_items": "← Go to faq categories",
        "item_link": "FAQ Category Link",
        "item_link_description": "A link to a faq category"
    },
    "description": "",
    "capabilities": {
        "manage_terms": "manage_categories",
        "edit_terms": "manage_categories",
        "delete_terms": "manage_categories",
        "assign_terms": "edit_posts"
    },
    "public": 1,
    "publicly_queryable": 1,
    "hierarchical": 0,
    "show_ui": 1,
    "show_in_menu": 1,
    "show_in_nav_menus": 1,
    "show_in_rest": 1,
    "rest_base": "",
    "rest_namespace": "wp\/v2",
    "rest_controller_class": "WP_REST_Terms_Controller",
    "show_tagcloud": 1,
    "show_in_quick_edit": 1,
    "show_admin_column": 0,
    "rewrite": {
        "permalink_rewrite": "taxonomy_key",
        "with_front": "1",
        "rewrite_hierarchical": "0"
    },
    "query_var": "post_type_key",
    "query_var_name": "",
    "default_term": {
        "default_term_enabled": "0"
    },
    "sort": 0,
    "meta_box": "default",
    "meta_box_cb": "",
    "meta_box_sanitize_cb": "",
    "modified": 1730912362
}
